{
  "InsuredInfo": {
    "Title": {
      "Id": 26,
      "Name": "Mr",
      "Code": null,
      "VisibleIndex": 0
    },
    "MaritalStatus": {
      "Id": 9,
      "Name": "Unknown",
      "Code": null,
      "VisibleIndex": 0
    },
    "Firstname": "Nick",
    "Surname": "Pistorius",
    "IDNumber": "9206025388087",
    "ITCConsent": true,
    "ContactNumber": "0219793719",
    "EmailAddress": "test@test.com",
	"ExternalReference" : "UniqueID"
  },
  "Request": {
    "Id": "3a557a4d-4122-4a16-baa2-1ced6b60786f",
    "Items": [
      {
        "Cover": {
          "Id": 218,
          "Name": "Motor"
        },
        "AssetNo": 1,
        "ParentAssetNo": 1,
        "PremiumIncluded": false,
        "RatingDate": "2014-09-30T06:43:25.840Z",
        "Answers": [
          {
            "Question": {
              "Id": 89,
              "Name": "Suburb",
              "QuestionGroup": {
                "Id": 1,
                "Name": "General Information",
                "VisibleIndex": 0
              },
              "QuestionType": {
                "Id": 4,
                "Name": "Textbox"
              }
            },
            "QuestionAnswer": "WELGEMOED"
          },
          {
            "Question": {
              "Id": 90,
              "Name": "Postal Code",
              "QuestionGroup": {
                "Id": 1,
                "Name": "General Information",
                "VisibleIndex": 0
              },
              "QuestionType": {
                "Id": 4,
                "Name": "Textbox"
              }
            },
            "QuestionAnswer": "7530"
          },
          {
            "Question": {
              "Id": 91,
              "Name": "Postal Code (Work)",
              "QuestionGroup": {
                "Id": 1,
                "Name": "General Information",
                "VisibleIndex": 0
              },
              "QuestionType": {
                "Id": 4,
                "Name": "Textbox"
              }
            },
            "QuestionAnswer": "7530"
          },
          {
            "Question": {
              "Id": 47,
              "Name": "Province",
              "QuestionGroup": {
                "Id": 1,
                "Name": "General Information",
                "VisibleIndex": 0
              },
              "QuestionType": {
                "Id": 3,
                "Name": "Dropdown"
              }
            },
            "QuestionAnswer": {
              "Id": "53",
              "Name": "Province-Western Cape",
              "Answer": "Western Cape",
              "VisibleIndex": "8",
              "Question": {
                "Id": 47,
                "Name": "Province",
                "QuestionGroup": {
                  "Id": 1,
                  "Name": "General Information",
                  "VisibleIndex": 0
                },
                "QuestionType": {
                  "Id": 3,
                  "Name": "Dropdown"
                }
              }
            }
          },
          {
            "Question": {
              "Id": 99,
              "Name": "Year Of Manufacture",
              "QuestionGroup": {
                "Id": 2,
                "Name": "Risk Information",
                "VisibleIndex": 1
              },
              "QuestionType": {
                "Id": 4,
                "Name": "Textbox"
              }
            },
            "QuestionAnswer": "2008"
          },
          {
            "Question": {
              "Id": 95,
              "Name": "Vehicle Make",
              "QuestionGroup": {
                "Id": 2,
                "Name": "Risk Information",
                "VisibleIndex": 1
              },
              "QuestionType": {
                "Id": 4,
                "Name": "Textbox"
              }
            },
            "QuestionAnswer": "AUDI"
          },
          {
            "Question": {
              "Id": 96,
              "Name": "Vehicle Model",
              "QuestionGroup": {
                "Id": 2,
                "Name": "Risk Information",
                "VisibleIndex": 1
              },
              "QuestionType": {
                "Id": 4,
                "Name": "Textbox"
              }
            },
            "QuestionAnswer": "RS4 QUATTRO"
          },
          {
            "Question": {
              "Id": 94,
              "Name": "Vehicle MM Code",
              "QuestionGroup": {
                "Id": 2,
                "Name": "Risk Information",
                "VisibleIndex": 1
              },
              "QuestionType": {
                "Id": 4,
                "Name": "Textbox"
              }
            },
            "QuestionAnswer": "04041980"
          },
          {
            "Question": {
              "Id": 69,
              "Name": "Vehicle Type",
              "QuestionGroup": {
                "Id": 2,
                "Name": "Risk Information",
                "VisibleIndex": 1
              },
              "QuestionType": {
                "Id": 3,
                "Name": "Dropdown"
              }
            },
            "QuestionAnswer": {
              "Id": "171",
              "Name": "Vehicle Type-Sedan",
              "Answer": "Sedan",
              "VisibleIndex": "0",
              "Question": {
                "Id": 69,
                "Name": "Vehicle Type",
                "QuestionGroup": {
                  "Id": 2,
                  "Name": "Risk Information",
                  "VisibleIndex": 1
                },
                "QuestionType": {
                  "Id": 3,
                  "Name": "Dropdown"
                }
              }
            }
          },
          {
            "Question": {
              "Id": 48,
              "Name": "Class Of Use",
              "QuestionGroup": {
                "Id": 2,
                "Name": "Risk Information",
                "VisibleIndex": 1
              },
              "QuestionType": {
                "Id": 3,
                "Name": "Dropdown"
              }
            },
            "QuestionAnswer": {
              "Id": "54",
              "Name": "Class Of Use-Private (Including Work)",
              "Answer": "Private (Including Work)",
              "VisibleIndex": "0",
              "Question": {
                "Id": 48,
                "Name": "Class Of Use",
                "QuestionGroup": {
                  "Id": 2,
                  "Name": "Risk Information",
                  "VisibleIndex": 1
                },
                "QuestionType": {
                  "Id": 3,
                  "Name": "Dropdown"
                }
              }
            }
          },
          {
            "Question": {
              "Id": 53,
              "Name": "Type Of Cover Motor",
              "QuestionGroup": {
                "Id": 2,
                "Name": "Risk Information",
                "VisibleIndex": 1
              },
              "QuestionType": {
                "Id": 3,
                "Name": "Dropdown"
              }
            },
            "QuestionAnswer": {
              "Id": "89",
              "Name": "Type Of Cover Motor-Comprehensive",
              "Answer": "Comprehensive",
              "VisibleIndex": "0",
              "Question": {
                "Id": 53,
                "Name": "Type Of Cover Motor",
                "QuestionGroup": {
                  "Id": 2,
                  "Name": "Risk Information",
                  "VisibleIndex": 1
                },
                "QuestionType": {
                  "Id": 3,
                  "Name": "Dropdown"
                }
              }
            }
          },
          {
            "Question": {
              "Id": 100,
              "Name": "Registered Owner ID Number",
              "QuestionGroup": {
                "Id": 2,
                "Name": "Risk Information",
                "VisibleIndex": 1
              },
              "QuestionType": {
                "Id": 4,
                "Name": "Textbox"
              }
            },
            "QuestionAnswer": "9206025388087"
          },
          {
            "Question": {
              "Id": 97,
              "Name": "Vehicle Registration Number",
              "QuestionGroup": {
                "Id": 2,
                "Name": "Risk Information",
                "VisibleIndex": 1
              },
              "QuestionType": {
                "Id": 4,
                "Name": "Textbox"
              }
            },
            "QuestionAnswer": "CA238239"
          },
          {
            "Question": {
              "Id": 7,
              "Name": "Modified/Imported",
              "QuestionGroup": {
                "Id": 2,
                "Name": "Risk Information",
                "VisibleIndex": 1
              },
              "QuestionType": {
                "Id": 1,
                "Name": "Checkbox"
              }
            },
            "QuestionAnswer": false
          },
          {
            "Question": {
              "Id": 87,
              "Name": "Vehicle Tracking Device",
              "QuestionGroup": {
                "Id": 3,
                "Name": "Security Information",
                "VisibleIndex": 2
              },
              "QuestionType": {
                "Id": 3,
                "Name": "Dropdown"
              }
            },
            "QuestionAnswer": {
              "Id": "303",
              "Name": "Vehicle Tracking Device-None",
              "Answer": "None",
              "VisibleIndex": "0",
              "Question": {
                "Id": 87,
                "Name": "Vehicle Tracking Device",
                "QuestionGroup": {
                  "Id": 3,
                  "Name": "Security Information",
                  "VisibleIndex": 2
                },
                "QuestionType": {
                  "Id": 3,
                  "Name": "Dropdown"
                }
              }
            }
          },
          {
            "Question": {
              "Id": 80,
              "Name": "Vehicle Immobiliser",
              "QuestionGroup": {
                "Id": 3,
                "Name": "Security Information",
                "VisibleIndex": 2
              },
              "QuestionType": {
                "Id": 3,
                "Name": "Dropdown"
              }
            },
            "QuestionAnswer": {
              "Id": "249",
              "Name": "Vehicle Immobiliser-None",
              "Answer": "None",
              "VisibleIndex": "0",
              "Question": {
                "Id": 80,
                "Name": "Vehicle Immobiliser",
                "QuestionGroup": {
                  "Id": 3,
                  "Name": "Security Information",
                  "VisibleIndex": 2
                },
                "QuestionType": {
                  "Id": 3,
                  "Name": "Dropdown"
                }
              }
            }
          },
          {
            "Question": {
              "Id": 8,
              "Name": "Vehicle Gearlock",
              "QuestionGroup": {
                "Id": 3,
                "Name": "Security Information",
                "VisibleIndex": 2
              },
              "QuestionType": {
                "Id": 1,
                "Name": "Checkbox"
              }
            },
            "QuestionAnswer": false
          },
          {
            "Question": {
              "Id": 9,
              "Name": "Vehicle DataDot",
              "QuestionGroup": {
                "Id": 3,
                "Name": "Security Information",
                "VisibleIndex": 2
              },
              "QuestionType": {
                "Id": 1,
                "Name": "Checkbox"
              }
            },
            "QuestionAnswer": false
          },
          {
            "Question": {
              "Id": 85,
              "Name": "Vehicle Overnight Parking",
              "QuestionGroup": {
                "Id": 3,
                "Name": "Security Information",
                "VisibleIndex": 2
              },
              "QuestionType": {
                "Id": 3,
                "Name": "Dropdown"
              }
            },
            "QuestionAnswer": {
              "Id": "278",
              "Name": "Vehicle Overnight Parking-In Locked Garage",
              "Answer": "In Locked Garage",
              "VisibleIndex": "0",
              "Question": {
                "Id": 85,
                "Name": "Vehicle Overnight Parking",
                "QuestionGroup": {
                  "Id": 3,
                  "Name": "Security Information",
                  "VisibleIndex": 2
                },
                "QuestionType": {
                  "Id": 3,
                  "Name": "Dropdown"
                }
              }
            }
          },
          {
            "Question": {
              "Id": 86,
              "Name": "Vehicle Daytime Parking",
              "QuestionGroup": {
                "Id": 3,
                "Name": "Security Information",
                "VisibleIndex": 2
              },
              "QuestionType": {
                "Id": 3,
                "Name": "Dropdown"
              }
            },
            "QuestionAnswer": {
              "Id": "290",
              "Name": "Vehicle Daytime Parking-Parking Lot",
              "Answer": "Parking Lot",
              "VisibleIndex": "0",
              "Question": {
                "Id": 86,
                "Name": "Vehicle Daytime Parking",
                "QuestionGroup": {
                  "Id": 3,
                  "Name": "Security Information",
                  "VisibleIndex": 2
                },
                "QuestionType": {
                  "Id": 3,
                  "Name": "Dropdown"
                }
              }
            }
          },
          {
            "Question": {
              "Id": 107,
              "Name": "Vehicle Extras Value",
              "QuestionGroup": {
                "Id": 4,
                "Name": "Additional Options",
                "VisibleIndex": 3
              },
              "QuestionType": {
                "Id": 4,
                "Name": "Textbox"
              }
            },
            "QuestionAnswer": "6420"
          },
          {
            "Question": {
              "Id": 74,
              "Name": "Voluntary Excess",
              "QuestionGroup": {
                "Id": 4,
                "Name": "Additional Options",
                "VisibleIndex": 3
              },
              "QuestionType": {
                "Id": 3,
                "Name": "Dropdown"
              }
            },
            "QuestionAnswer": {
              "Id": "201",
              "Name": "Voluntary Excess-0",
              "Answer": "0",
              "VisibleIndex": "0",
              "Question": {
                "Id": 74,
                "Name": "Voluntary Excess",
                "QuestionGroup": {
                  "Id": 4,
                  "Name": "Additional Options",
                  "VisibleIndex": 3
                },
                "QuestionType": {
                  "Id": 3,
                  "Name": "Dropdown"
                }
              }
            }
          },
          {
            "Question": {
              "Id": 25,
              "Name": "Top Up Cover",
              "QuestionGroup": {
                "Id": 4,
                "Name": "Additional Options",
                "VisibleIndex": 3
              },
              "QuestionType": {
                "Id": 1,
                "Name": "Checkbox"
              }
            },
            "QuestionAnswer": false
          },
          {
            "Question": {
              "Id": 30,
              "Name": "Four-By-Four Cover",
              "QuestionGroup": {
                "Id": 4,
                "Name": "Additional Options",
                "VisibleIndex": 3
              },
              "QuestionType": {
                "Id": 1,
                "Name": "Checkbox"
              }
            },
            "QuestionAnswer": false
          },
          {
            "Question": {
              "Id": 31,
              "Name": "Luxury Cover",
              "QuestionGroup": {
                "Id": 4,
                "Name": "Additional Options",
                "VisibleIndex": 3
              },
              "QuestionType": {
                "Id": 1,
                "Name": "Checkbox"
              }
            },
            "QuestionAnswer": false
          },
          {
            "Question": {
              "Id": 110,
              "Name": "Radio Value",
              "QuestionGroup": {
                "Id": 4,
                "Name": "Additional Options",
                "VisibleIndex": 3
              },
              "QuestionType": {
                "Id": 4,
                "Name": "Textbox"
              }
            },
            "QuestionAnswer": ""
          },
          {
            "Question": {
              "Id": 24,
              "Name": "Excess Waiver",
              "QuestionGroup": {
                "Id": 4,
                "Name": "Additional Options",
                "VisibleIndex": 3
              },
              "QuestionType": {
                "Id": 1,
                "Name": "Checkbox"
              }
            },
            "QuestionAnswer": false
          },
          {
            "Question": {
              "Id": 77,
              "Name": "Car Hire",
              "QuestionGroup": {
                "Id": 4,
                "Name": "Additional Options",
                "VisibleIndex": 3
              },
              "QuestionType": {
                "Id": 3,
                "Name": "Dropdown"
              }
            },
            "QuestionAnswer": {
              "Id": "237",
              "Name": "Car Hire-None",
              "Answer": "None",
              "VisibleIndex": "0",
              "Question": {
                "Id": 77,
                "Name": "Car Hire",
                "QuestionGroup": {
                  "Id": 4,
                  "Name": "Additional Options",
                  "VisibleIndex": 3
                },
                "QuestionType": {
                  "Id": 3,
                  "Name": "Dropdown"
                }
              }
            }
          },
          {
            "Question": {
              "Id": 63,
              "Name": "Drivers For This Vehicle",
              "QuestionGroup": {
                "Id": 4,
                "Name": "Additional Options",
                "VisibleIndex": 3
              },
              "QuestionType": {
                "Id": 3,
                "Name": "Dropdown"
              }
            },
            "QuestionAnswer": {
              "Id": "148",
              "Name": "Drivers For This Vehicle-Restricted To Insured Only",
              "Answer": "Restricted To Insured Only",
              "VisibleIndex": "0",
              "Question": {
                "Id": 63,
                "Name": "Drivers For This Vehicle",
                "QuestionGroup": {
                  "Id": 4,
                  "Name": "Additional Options",
                  "VisibleIndex": 3
                },
                "QuestionType": {
                  "Id": 3,
                  "Name": "Dropdown"
                }
              }
            }
          },
          {
            "Question": {
              "Id": 64,
              "Name": "Selected Excess",
              "QuestionGroup": {
                "Id": 4,
                "Name": "Additional Options",
                "VisibleIndex": 3
              },
              "QuestionType": {
                "Id": 3,
                "Name": "Dropdown"
              }
            },
            "QuestionAnswer": {
              "Id": "152",
              "Name": "Selected Excess-R0",
              "Answer": "R0",
              "VisibleIndex": "0",
              "Question": {
                "Id": 64,
                "Name": "Selected Excess",
                "QuestionGroup": {
                  "Id": 4,
                  "Name": "Additional Options",
                  "VisibleIndex": 3
                },
                "QuestionType": {
                  "Id": 3,
                  "Name": "Dropdown"
                }
              }
            }
          },
          {
            "Question": {
              "Id": 104,
              "Name": "Main Driver ID Number",
              "QuestionGroup": {
                "Id": 5,
                "Name": "Driver Information",
                "VisibleIndex": 4
              },
              "QuestionType": {
                "Id": 4,
                "Name": "Textbox"
              }
            },
            "QuestionAnswer": "9206025388087"
          },
          {
            "Question": {
              "Id": 72,
              "Name": "Main Driver Marital Status",
              "QuestionGroup": {
                "Id": 5,
                "Name": "Driver Information",
                "VisibleIndex": 4
              },
              "QuestionType": {
                "Id": 3,
                "Name": "Dropdown"
              }
            },
            "QuestionAnswer": {
              "Id": "187",
              "Name": "Main Driver Marital Status-Unknown",
              "Answer": "Unknown",
              "VisibleIndex": "9",
              "Question": {
                "Id": 72,
                "Name": "Main Driver Marital Status",
                "QuestionGroup": {
                  "Id": 5,
                  "Name": "Driver Information",
                  "VisibleIndex": 4
                },
                "QuestionType": {
                  "Id": 3,
                  "Name": "Dropdown"
                }
              }
            }
          },
          {
            "Question": {
              "Id": 41,
              "Name": "Drivers Licence First Issued Date",
              "QuestionGroup": {
                "Id": 5,
                "Name": "Driver Information",
                "VisibleIndex": 4
              },
              "QuestionType": {
                "Id": 2,
                "Name": "Date"
              }
            },
            "QuestionAnswer": "2010-06-02T00: 00: 00"
          },
          {
            "Question": {
              "Id": 73,
              "Name": "Drivers Licence Type",
              "QuestionGroup": {
                "Id": 5,
                "Name": "Driver Information",
                "VisibleIndex": 4
              },
              "QuestionType": {
                "Id": 3,
                "Name": "Dropdown"
              }
            },
            "QuestionAnswer": {
              "Id": "200",
              "Name": "Drivers Licence Type-None",
              "Answer": "None",
              "VisibleIndex": "12",
              "Question": {
                "Id": 73,
                "Name": "Drivers Licence Type",
                "QuestionGroup": {
                  "Id": 5,
                  "Name": "Driver Information",
                  "VisibleIndex": 4
                },
                "QuestionType": {
                  "Id": 3,
                  "Name": "Dropdown"
                }
              }
            }
          },
          {
            "Question": {
              "Id": 70,
              "Name": "Main Driver Gender",
              "QuestionGroup": {
                "Id": 5,
                "Name": "Driver Information",
                "VisibleIndex": 4
              },
              "QuestionType": {
                "Id": 3,
                "Name": "Dropdown"
              }
            },
            "QuestionAnswer": {
              "Id": "173",
              "Name": "Main Driver Gender-Male",
              "Answer": "Male",
              "VisibleIndex": "0",
              "Question": {
                "Id": 70,
                "Name": "Main Driver Gender",
                "QuestionGroup": {
                  "Id": 5,
                  "Name": "Driver Information",
                  "VisibleIndex": 4
                },
                "QuestionType": {
                  "Id": 3,
                  "Name": "Dropdown"
                }
              }
            }
          },
          {
            "Question": {
              "Id": 42,
              "Name": "Main Driver Date of Birth",
              "QuestionGroup": {
                "Id": 5,
                "Name": "Driver Information",
                "VisibleIndex": 4
              },
              "QuestionType": {
                "Id": 2,
                "Name": "Date"
              }
            },
            "QuestionAnswer": "1992-06-02T00: 00: 00"
          },
          {
            "Question": {
              "Id": 37,
              "Name": "Nominated Driver",
              "QuestionGroup": {
                "Id": 5,
                "Name": "Driver Information",
                "VisibleIndex": 4
              },
              "QuestionType": {
                "Id": 1,
                "Name": "Checkbox"
              }
            },
            "QuestionAnswer": true
          },
          {
            "Question": {
              "Id": 38,
              "Name": "Advanced Driver",
              "QuestionGroup": {
                "Id": 5,
                "Name": "Driver Information",
                "VisibleIndex": 4
              },
              "QuestionType": {
                "Id": 1,
                "Name": "Checkbox"
              }
            },
            "QuestionAnswer": true
          },
          {
            "Question": {
              "Id": 60,
              "Name": "Relationship To Insured",
              "QuestionGroup": {
                "Id": 5,
                "Name": "Driver Information",
                "VisibleIndex": 4
              },
              "QuestionType": {
                "Id": 3,
                "Name": "Dropdown"
              }
            },
            "QuestionAnswer": {
              "Id": "134",
              "Name": "Relationship To Insured-Insured",
              "Answer": "Insured",
              "VisibleIndex": "0",
              "Question": {
                "Id": 60,
                "Name": "Relationship To Insured",
                "QuestionGroup": {
                  "Id": 5,
                  "Name": "Driver Information",
                  "VisibleIndex": 4
                },
                "QuestionType": {
                  "Id": 3,
                  "Name": "Dropdown"
                }
              }
            }
          },
          {
            "Question": {
              "Id": 43,
              "Name": "No Claim Bonus",
              "QuestionGroup": {
                "Id": 6,
                "Name": "Insurance History",
                "VisibleIndex": 5
              },
              "QuestionType": {
                "Id": 3,
                "Name": "Dropdown"
              }
            },
            "QuestionAnswer": {
              "Id": "1",
              "Name": "No Claim Bonus-0",
              "Answer": "0",
              "VisibleIndex": "0",
              "Question": {
                "Id": 43,
                "Name": "No Claim Bonus",
                "QuestionGroup": {
                  "Id": 6,
                  "Name": "Insurance History",
                  "VisibleIndex": 5
                },
                "QuestionType": {
                  "Id": 3,
                  "Name": "Dropdown"
                }
              }
            }
          },
          {
            "Question": {
              "Id": 39,
              "Name": "Previously Insured",
              "QuestionGroup": {
                "Id": 6,
                "Name": "Insurance History",
                "VisibleIndex": 5
              },
              "QuestionType": {
                "Id": 1,
                "Name": "Checkbox"
              }
            },
            "QuestionAnswer": false
          },
          {
            "Question": {
              "Id": 44,
              "Name": "Claims Last 0 to 12 Months",
              "QuestionGroup": {
                "Id": 6,
                "Name": "Insurance History",
                "VisibleIndex": 5
              },
              "QuestionType": {
                "Id": 3,
                "Name": "Dropdown"
              }
            },
            "QuestionAnswer": {
              "Id": "12",
              "Name": "Claims Last 0 to 12 Months-0",
              "Answer": "0",
              "VisibleIndex": "0",
              "Question": {
                "Id": 44,
                "Name": "Claims Last 0 to 12 Months",
                "QuestionGroup": {
                  "Id": 6,
                  "Name": "Insurance History",
                  "VisibleIndex": 5
                },
                "QuestionType": {
                  "Id": 3,
                  "Name": "Dropdown"
                }
              }
            }
          },
          {
            "Question": {
              "Id": 45,
              "Name": "Claims Last 12 to 24 Months",
              "QuestionGroup": {
                "Id": 6,
                "Name": "Insurance History",
                "VisibleIndex": 5
              },
              "QuestionType": {
                "Id": 3,
                "Name": "Dropdown"
              }
            },
            "QuestionAnswer": {
              "Id": "23",
              "Name": "Claims Last 12 to 24 Months-0",
              "Answer": "0",
              "VisibleIndex": "0",
              "Question": {
                "Id": 45,
                "Name": "Claims Last 12 to 24 Months",
                "QuestionGroup": {
                  "Id": 6,
                  "Name": "Insurance History",
                  "VisibleIndex": 5
                },
                "QuestionType": {
                  "Id": 3,
                  "Name": "Dropdown"
                }
              }
            }
          },
          {
            "Question": {
              "Id": 46,
              "Name": "Claims Last 24 to 36 Months",
              "QuestionGroup": {
                "Id": 6,
                "Name": "Insurance History",
                "VisibleIndex": 5
              },
              "QuestionType": {
                "Id": 3,
                "Name": "Dropdown"
              }
            },
            "QuestionAnswer": {
              "Id": "34",
              "Name": "Claims Last 24 to 36 Months-0",
              "Answer": "0",
              "VisibleIndex": "0",
              "Question": {
                "Id": 46,
                "Name": "Claims Last 24 to 36 Months",
                "QuestionGroup": {
                  "Id": 6,
                  "Name": "Insurance History",
                  "VisibleIndex": 5
                },
                "QuestionType": {
                  "Id": 3,
                  "Name": "Dropdown"
                }
              }
            }
          },
          {
            "Question": {
              "Id": 102,
              "Name": "Sum Insured",
              "QuestionGroup": {
                "Id": 7,
                "Name": "Finance Information",
                "VisibleIndex": 6
              },
              "QuestionType": {
                "Id": 4,
                "Name": "Textbox"
              }
            },
            "QuestionAnswer": "299100"
          },
          {
            "Question": {
              "Id": 103,
              "Name": "Finance House",
              "QuestionGroup": {
                "Id": 7,
                "Name": "Finance Information",
                "VisibleIndex": 6
              },
              "QuestionType": {
                "Id": 4,
                "Name": "Textbox"
              }
            },
            "QuestionAnswer": ""
          }
        ]
      }
    ],
    "Policy": {
      "PaymentPlan": {
        "Id": 3,
        "Name": "Monthly",
        "Code": null,
        "VisibleIndex": 0
      },
      "Persons": [
        {
          "Firstname": "Nick",
          "ITCConsent": "true",
          "ContactNumber": "",
          "EmailAddress": "",
          "IDNumber": "9206025388087",
          "Surname": "Pistorius",
          "Initials": "NP",
          "MaritalStatus": {
            "Id": 9,
            "Name": "Unknown",
            "Code": null,
            "VisibleIndex": 0
          },
          "IdNumber": "9206025388087",
          "Title": {
            "Id": 26,
            "Name": "Mr",
            "Code": null,
            "VisibleIndex": 0
          },
          "Language": {
            "Id": 2,
            "Name": "English",
            "Code": null
          },
          "PolicyHolder": true,
          "Addresses": [
            {
              "AddressType": {
                "Id": 1,
                "Name": "PhysicalAddress"
              },
              "Address1": "77 PLETTENBERG STREET",
              "Address2": "",
              "Address3": "",
              "Address4": "",
              "City": "BELLVILLE",
              "Suburb": "WELGEMOED",
              "PostalCode": "7530",
              "DefaultAddress": true
            }
          ]
        }
      ]
    }
  },
  "CampaignReference": "AMS",
  "ExternalSystemInfo": {
      "CampaignReference": "AMS",
      "CallCentreUserName": "George",
      "CallCentreUserId": "1",
      "SourceId": "2",
	  "ExternalReference": "SINNo"
    }
}